government = tribal
add_government_reform = greentide_horde
government_rank = 1
primary_culture = green_orc
religion = great_dookan
technology_group = tech_orcish
capital = 839

1440.4.15 = {
	monarch = {
		name = "Zog"
		dynasty = "Bloodgorger"
		birth_date = 1405.10.22
		adm = 0
		dip = 0
		mil = 6
	}
}