government = tribal
primary_culture = fathide_ogre
add_government_reform = settled_horde
government_rank = 1
religion = feast_of_the_gods
technology_group = tech_ogre
capital = 5021

1418.1.1 = {
	monarch = {
		name = "Tug"
		dynasty = "Grey Fist"
		birth_date = 1397.1.4
		adm = 2
		dip = 0
		mil = 2
    }
	add_ruler_personality = drunkard_personality
	add_ruler_personality = babbling_buffoon_personality
	add_ruler_personality = infertile_personality
}
1440.2.16 = {
	heir = {
		name = "Ghon"
		monarch_name = "Ghon"
		dynasty = "Grey Fist"
		birth_date = 1440.2.16
		death_date = 1513.10.6
		claim = 50
		culture = fathide_ogre
		adm = 4
		dip = 5
		mil = 4
	}
}