grombar_wars_of_religion = {
	potential = {
		tag = Z50
		NOT = { has_country_flag = had_religious_turmoil } 
		NOT = { has_country_flag = grombar_wars_of_religion_ended } 
		OR = {
			religion = old_dookan
			religion = great_dookan
			religion = regent_court
			religion = corinite
		}
		is_force_converted = no
		normal_or_historical_nations = yes
	}
	
	can_start = {
		current_age = age_of_reformation
		is_religion_enabled = corinite
		has_any_disaster = no
		NOT = { religious_unity = 0.75 }
		NOT = { full_idea_group = humanist_ideas }
		any_owned_province = {
			OR = {
				continent = europe
				region = northern_pass_region
			}
			has_owner_religion = no
			OR = {
				religion = old_dookan
				religion = great_dookan
				religion = regent_court
				religion = corinite
			}
		}
	}
	
	can_stop = {
		OR = {
			has_any_disaster = yes
			religious_unity = 0.75
			full_idea_group = humanist_ideas
		}
	}
	
	progress = {
		modifier = {
			factor = 1
			NOT = { religious_unity = 0.75 }
			religious_unity = 0.5
		} 		
		modifier = {
			factor = 2
			NOT = { religious_unity = 0.5 }
		} 
		modifier = {
			factor = 1
			has_idea_group = religious_ideas
		}
		modifier = {
			factor = 1
			NOT = { stability = 0 }
		}
		modifier = {
			factor = 2
			has_hostile_reformation_center = yes
		}
		modifier = {
			factor = -1
			has_friendly_reformation_center = yes
		}
	}
	
	can_end = {
		NOT = { num_of_rebel_controlled_provinces = 1 }
		stability = 1
		capital_scope = {
			controlled_by = ROOT
		}
		OR = {
			is_force_converted = yes
			religious_unity = 0.9
			full_idea_group = humanist_ideas
		}
		NOT = {
			any_owned_province = {
				region = alenic_reach_region
				has_owner_religion = no
				unrest = 5
			}
		}
	}

	modifier = {
		global_unrest = 6
		tolerance_heretic = -1
		tolerance_heathen = -1
	}

	on_start = flavor_grombar.100
	on_end = flavor_grombar.200
	
	on_monthly = {
		events = {
			flavor_grombar.103
			flavor_grombar.104
			flavor_grombar.105
			flavor_grombar.106
		}
		
		random_events = { 
			2000 = 0
			100 = flavor_grombar.101 #Assassination of the Missionary
			100 = flavor_grombar.103 #Assassination of the King
			100 = flavor_grombar.104 #Tribal uprising
		}
	}
}