
#This one or the next one will always be valid
estate_mages_fire_advisor = {
	can_select = {
		employed_advisor = {
			category = ADM
		}
		NOT = {
			employed_advisor = {
				type = court_mage
			}
		}
	}
	selection_weight = {
		factor = 1
		modifier = {
			factor = 0.5
			always = yes
		}
		modifier = {
			factor = 0.5
			employed_advisor = {
				type = inquisitor
			}
		}
		modifier = {
			factor = 0.5
			employed_advisor = {
				type = natural_scientist
			}
		}
		modifier = {
			factor = 0.5
			NOT = {
				estate_influence = {
					estate = estate_mages
					influence = 50
				}
			}
		}
	}
	immediate_effect = {
		hidden_effect = {
			set_country_flag = need_to_fire_adm_advisor
		}
	}
	on_invalid = {
		clr_country_flag = need_to_fire_adm_advisor
	}
	task_requirements = {
		custom_trigger_tooltip = {
			tooltip = fire_adm_advisor_tooltip
			has_country_flag = just_fired_adm_advisor
		}
	}
    task_completed_effect = {
		add_estate_loyalty = {
			estate = estate_mages
			loyalty = 10
		}
		create_advisor = court_mage
		
		clr_country_flag = just_fired_adm_advisor
		clr_country_flag = need_to_fire_adm_advisor
	}
	invalid_trigger = {
		NOT = {
			employed_advisor = {
				category = ADM
			}
		}
		NOT = { has_country_flag = just_fired_adm_advisor }
	}
    failing_effect = {
        add_estate_loyalty_modifier = {
            estate = estate_mages
			desc = EST_VAL_AGENDA_DENIED
			loyalty = -5
			duration = 7300
        }
		clr_country_flag = need_to_fire_adm_advisor
    }
}

#Improve Relations with Pope
estate_mages_relations_with_magisterium = {
	can_select = {
		has_estate_privilege = estate_mages_organization_magisterium
		NOT = { tag = A85 }
		exists = A85 
		NOT = { war_with = A85 }
		A85 = {
			has_opinion = { who = ROOT value = -50 }
			NOT = { has_opinion = { who = ROOT value = 50 } }
		}
	}
	selection_weight = {
		factor = 2.5
	}
	fail_if = {
		OR = {
			tag = A85
			NOT = { exists = A85 }
			war_with = A85
		}
	}
	invalid_trigger = {
		OR = {
			NOT = { has_estate = estate_mages }
		}
	}
	provinces_to_highlight = {
		is_capital_of = A85
	}
	task_requirements = {
		A85 = { has_opinion = { who = ROOT value = 100 } }
	}
	task_completed_effect = {
		add_estate_loyalty = {
			estate = estate_mages
			loyalty = 5
		}
	}
    failing_effect = {
        add_estate_loyalty_modifier = {
            estate = estate_mages
			desc = EST_VAL_AGENDA_DENIED
			loyalty = -5
			duration = 7300
        }
    }
}


#Improve Relations with Pro Mage Countries
estate_mages_relations_with_pro_mage_countries = {
	can_select = {
		any_known_country = {
			has_estate = estate_mages
			estate_loyalty = {
				estate = estate_mages
				loyalty = 60
			}
			NOT = { war_with = ROOT }
			NOT = { is_rival = ROOT }
			has_opinion = { who = ROOT value = -50 }
			NOT = { has_opinion = { who = ROOT value = 50 } }
		}
	}
	selection_weight = {
		factor = 2.5
	}
	pre_effect = {
		random_known_country = {
			limit = {
				has_estate = estate_mages
				estate_loyalty = {
					estate = estate_mages
					loyalty = 60
				}
				NOT = { war_with = ROOT }
				NOT = { is_rival = ROOT }
				has_opinion = { who = ROOT value = -50 }
				NOT = { has_opinion = { who = ROOT value = 50 } }
			}
			save_event_target_as = agenda_country
		}
	}
	fail_if = {
		event_target:agenda_country = {
			OR = {
				war_with = ROOT
				exists = no
			}
		}
	}
	invalid_trigger = {
		event_target:agenda_country = {
			NOT = { has_estate = estate_mages }
		}
	}
	provinces_to_highlight = {
		is_capital_of = event_target:agenda_country
	}
	task_requirements = {
		event_target:agenda_country = {
			has_opinion = {
				who = root
				value = 100
			}
		}
	}
	task_completed_effect = {
		add_estate_loyalty = {
			estate = estate_mages
			loyalty = 5
		}
	}
    failing_effect = {
        add_estate_loyalty_modifier = {
            estate = estate_mages
			desc = EST_VAL_AGENDA_DENIED
			loyalty = -5
			duration = 7300
        }
    }
}

#Spy Network on Rival
estate_mages_spy_on_rival = {
	can_select = {
		any_rival_country = {
			NOT = { war_with = root }
			NOT = {
				has_spy_network_from = {
					who = ROOT
					value = 25
				}
			}
		}
	}
	selection_weight = {
		factor = 1
	}
	pre_effect = {
		random_rival_country = {
			limit = {
				NOT = { war_with = root }
				NOT = {
					has_spy_network_from = {
						who = ROOT
						value = 25
					}
				}
			}
			save_event_target_as = agenda_country
		}
	}
	provinces_to_highlight = {
		is_capital_of = event_target:agenda_country
	}
	task_requirements = {
		event_target:agenda_country = {
			has_spy_network_from = {
				who = ROOT
				value = 50
			}
		}
	}
	task_completed_effect = {
		add_estate_loyalty = {
			estate = estate_mages
			loyalty = 5
		}
		add_dip_power = 50
	}
    failing_effect = {
        add_estate_loyalty_modifier = {
            estate = estate_mages
			desc = EST_VAL_AGENDA_DENIED
			loyalty = -5
			duration = 7300
        }
    }
}

#Universities
estate_mages_build_university_in_y = {
	can_select = {
		adm_tech = 17
		any_owned_province = {
			is_state_core = root
			NOT = { has_building = university }
			OR = {
				development = 10
				is_capital = yes
			}
		}
	}
	selection_weight = {
		factor = 1
		modifier = {
			factor = 0.75
			NOT = {
				any_owned_province = {
					is_state_core = root
					NOT = { has_building = university }
					development = 15
				}
			}
		}
		modifier = {
			factor = 1.2
			any_owned_province = {
				is_state_core = root
				NOT = { has_building = university }
				development = 20
			}
		}
		modifier = {
			factor = 2
			is_institution_enabled = enlightenment
			NOT = { has_institution = enlightenment }
		}
	}
	pre_effect = {
		random_owned_province = {
			limit = {
				is_state_core = root
				NOT = { has_building = university }
				development = 10
			}
			save_event_target_as = agenda_province
		}
		random_owned_province = {
			limit = {
				is_state_core = root
				NOT = { has_building = university }
				development = 15
			}
			save_event_target_as = agenda_province
		}
		random_owned_province = {
			limit = {
				is_state_core = root
				NOT = { has_building = university }
				development = 20
			}
			save_event_target_as = agenda_province
		}
		random_owned_province = {
			limit = {
				is_state_core = root
				NOT = { has_building = university }
				is_capital = yes
			}
			save_event_target_as = agenda_province
		}
	}
	provinces_to_highlight = {
		province_id = event_target:agenda_province
	}
	fail_if = {
		event_target:agenda_province = {
			NOT = { owned_by = root }
		}
	}
    task_requirements = {
		event_target:agenda_province = {
			has_building = university
		}
    }
    task_completed_effect = {
		add_estate_loyalty = {
			estate = estate_mages
			loyalty = 10
		}
		add_adm_power = 35
		add_dip_power = 35
		add_mil_power = 35
    }
    failing_effect = {
		event_target:agenda_province = {
			if = {
				limit = { owned_by = root }
				add_named_unrest = {
					name = local_mages_displeased
					value = 5
				}
			}
		}
        add_estate_loyalty_modifier = {
            estate = estate_mages
			desc = EST_VAL_AGENDA_DENIED
			loyalty = -5
			duration = 7300
        }
    }
}


#Conquer X tradegood from country you don't have great relations with
estate_mages_conquer_damestear = {
	can_select = {
		is_free_or_tributary_trigger = yes
		is_at_war = no
		any_neighbor_country = {
			#num_of_cities = 6
			is_free_or_tributary_trigger = yes
			NOT = { is_subject_of = root }
			NOT = { overlord_of = root }
			NOT = { alliance_with = root }
			NOT = { ROOT = { truce_with = prev } }
			NOT = { 
				has_opinion = {
					who = root
					value = 25
				}
			}
			any_owned_province = { #No need for this agenda if covered by a mission
				trade_goods = damestear
			}
			ROOT = {
				knows_country = prev
			}
			OR = {
				is_part_of_hre = no
				NOT = { hre_reform_passed = landfriede }
				ROOT = { is_part_of_hre = no }
			}
		}
	}
	selection_weight = {
		factor = 1
		modifier = {
			factor = 0.5
			has_non_generic_missions = yes
		}
		modifier = {
			factor = 1.5
			NOT = { damestear = 1 }
		}
		modifier = {
			factor = 1.5
			NOT = { damestear = 3 }
		}
		modifier = {
			factor = 0.25
			any_country = {
				coalition_target = root
			}
		}
	}
	pre_effect = {
		random_neighbor_country = {
			limit = {
				#num_of_cities = 6
				is_free_or_tributary_trigger = yes
				NOT = { is_subject_of = root }
				NOT = { overlord_of = root }
				NOT = { alliance_with = root }
				NOT = { ROOT = { truce_with = prev } }
				NOT = { 
					has_opinion = {
						who = root
						value = 25
					}
				}
				any_owned_province = { #No need for this agenda if covered by a mission
					trade_goods = damestear
				}
				ROOT = {
					knows_country = prev
				}
				OR = {
					is_part_of_hre = no
					NOT = { hre_reform_passed = landfriede }
					ROOT = { is_part_of_hre = no }
				}
			}
			random_owned_province = {
				limit = {
					trade_goods = damestear
				}
				save_event_target_as = agenda_province
			}
			random_owned_province = {
				limit = {
					trade_goods = damestear

					any_neighbor_province = {
						owned_by = root
					}
				}
				save_event_target_as = agenda_province
			}
		}
	}
	immediate_effect = {
		event_target:agenda_province = {
			add_claim = root
		}
	}
	on_invalid = {
		if = {
			limit = {
				event_target:agenda_province = {
					is_claim = root
					NOT = { is_permanent_claim = root }
				}
			}
			event_target:agenda_province = {
				remove_claim = root
			}
		}
		if = {
			limit = {
				event_target:agenda_province = {
					NOT = { trade_goods = damestear }
				}
			}
			event_target:agenda_province = {
				remove_claim = root
			}
		}
	}
	provinces_to_highlight = {
		area_for_scope_province = {
			province_id = event_target:agenda_province
		}
	}
	task_requirements = {
		event_target:agenda_province = {
			owned_by = root
		}
	}
	fail_if = {
		event_target:agenda_province = {
			NOT = { is_claim = root }
			NOT = { is_core = root }
			NOT = { owned_by = root }
		}
	}
	task_completed_effect = {
		add_estate_loyalty = {
			estate = estate_mages
			loyalty = 20
		}
		add_adm_power = 50
	}
    failing_effect = {
        add_estate_loyalty_modifier = {
            estate = estate_mages
			desc = EST_VAL_AGENDA_DENIED
			loyalty = -5
			duration = 7300
        }
		if = {
			limit = {
				event_target:agenda_province = {
					is_claim = root
					NOT = { is_permanent_claim = root }
				}
			}
			event_target:agenda_province = {
					remove_claim = root
			}
		}
    }
}


estate_mages_conquer_precursor_relics = {
	can_select = {
		is_free_or_tributary_trigger = yes
		is_at_war = no
		any_neighbor_country = {
			#num_of_cities = 6
			is_free_or_tributary_trigger = yes
			NOT = { is_subject_of = root }
			NOT = { overlord_of = root }
			NOT = { alliance_with = root }
			NOT = { ROOT = { truce_with = prev } }
			NOT = { 
				has_opinion = {
					who = root
					value = 25
				}
			}
			any_owned_province = { #No need for this agenda if covered by a mission
				trade_goods = precursor_relics
			}
			ROOT = {
				knows_country = prev
			}
			OR = {
				is_part_of_hre = no
				NOT = { hre_reform_passed = landfriede }
				ROOT = { is_part_of_hre = no }
			}
		}
	}
	selection_weight = {
		factor = 1
		modifier = {
			factor = 0.5
			has_non_generic_missions = yes
		}
		modifier = {
			factor = 1.5
			NOT = { precursor_relics = 1 }
		}
		modifier = {
			factor = 1.5
			NOT = { precursor_relics = 3 }
		}
		modifier = {
			factor = 0.25
			any_country = {
				coalition_target = root
			}
		}
	}
	pre_effect = {
		random_neighbor_country = {
			limit = {
				#num_of_cities = 6
				is_free_or_tributary_trigger = yes
				NOT = { is_subject_of = root }
				NOT = { overlord_of = root }
				NOT = { alliance_with = root }
				NOT = { ROOT = { truce_with = prev } }
				NOT = { 
					has_opinion = {
						who = root
						value = 25
					}
				}
				any_owned_province = { #No need for this agenda if covered by a mission
					trade_goods = precursor_relics
				}
				ROOT = {
					knows_country = prev
				}
				OR = {
					is_part_of_hre = no
					NOT = { hre_reform_passed = landfriede }
					ROOT = { is_part_of_hre = no }
				}
			}
			random_owned_province = {
				limit = {
					trade_goods = precursor_relics
				}
				save_event_target_as = agenda_province
			}
			random_owned_province = {
				limit = {
					trade_goods = precursor_relics

					any_neighbor_province = {
						owned_by = root
					}
				}
				save_event_target_as = agenda_province
			}
		}
	}
	immediate_effect = {
		event_target:agenda_province = {
			add_claim = root
		}
	}
	on_invalid = {
		if = {
			limit = {
				event_target:agenda_province = {
					is_claim = root
					NOT = { is_permanent_claim = root }
				}
			}
			event_target:agenda_province = {
				remove_claim = root
			}
		}
		if = {
			limit = {
				event_target:agenda_province = {
					NOT = { trade_goods = precursor_relics }
				}
			}
			event_target:agenda_province = {
				remove_claim = root
			}
		}
	}
	provinces_to_highlight = {
		area_for_scope_province = {
			province_id = event_target:agenda_province
		}
	}
	task_requirements = {
		event_target:agenda_province = {
			owned_by = root
		}
	}
	fail_if = {
		event_target:agenda_province = {
			NOT = { is_claim = root }
			NOT = { is_core = root }
			NOT = { owned_by = root }
		}
	}
	task_completed_effect = {
		add_estate_loyalty = {
			estate = estate_mages
			loyalty = 20
		}
		add_mil_power = 50
	}
    failing_effect = {
        add_estate_loyalty_modifier = {
            estate = estate_mages
			desc = EST_VAL_AGENDA_DENIED
			loyalty = -5
			duration = 7300
        }
		if = {
			limit = {
				event_target:agenda_province = {
					is_claim = root
					NOT = { is_permanent_claim = root }
				}
			}
			event_target:agenda_province = {
					remove_claim = root
			}
		}
    }
}


#Fort on Desired Tradegood
estate_mages_build_fort_building_on_damestear = {
	can_select = {
		any_owned_province = {
			trade_goods = damestear
			OR = {
				AND = {
					NOT = { has_building = fort_15th }
					NOT = { has_building = fort_16th }
					NOT = { has_building = fort_17th }
					NOT = { has_building = fort_18th }
					num_free_building_slots = 1
					any_neighbor_province = {
						owner = {
							OR = {
								is_rival = root
								root = { is_rival = prev }
								AND = {
									is_subject_other_than_tributary_trigger = yes
									overlord = {
										OR = {
											is_rival = root
											root = { is_rival = prev }
										}
									}
								}
							}
						}
					}
					NOT = {
						any_neighbor_province = {
							owned_by = root
							OR = {
								has_building = fort_15th
								has_building = fort_16th
								has_building = fort_17th
								has_building = fort_18th
							}
						}
					}
				}
				AND = {
					NOT = { has_building = fort_15th }
					NOT = { has_building = fort_16th }
					NOT = { has_building = fort_17th }
					NOT = { has_building = fort_18th }
					num_free_building_slots = 1
					any_neighbor_province = {
						owned_by = root
						any_neighbor_province = {
							owner = {
								OR = {
									is_rival = root
									root = { is_rival = prev }
									AND = {
										is_subject_other_than_tributary_trigger = yes
										overlord = {
											OR = {
												is_rival = root
												root = { is_rival = prev }
											}
										}
									}
								}
							}
							NOT = {
								any_neighbor_province = {
									owned_by = root
									OR = {
										has_building = fort_15th
										has_building = fort_16th
										has_building = fort_17th
										has_building = fort_18th
									}
								}
							}
						}
					}
				}
				AND = {
					has_building = fort_15th
					ROOT = { mil_tech = 14 }
				}
				AND = {
					has_building = fort_16th
					ROOT = { mil_tech = 19 }
				}
				AND = {
					has_building = fort_17th
					ROOT = { mil_tech = 24 }
				}
			}
			NOT = { has_building = fort_18th }
		}
	}
	selection_weight = {
		factor = 1
		modifier = {
			factor = 1.5
			any_neighbor_country = {
				OR = {
					is_rival = root
					root = { is_rival = prev }
				}
				army_size = root
			}
		}
	}
	pre_effect = {
		set_variable = {
			which = estate_mages_build_fort_building_in_y_var
			value = 0
		}
		random_owned_province = {
			limit = {
				trade_goods = damestear
				OR = {
					AND = {
						NOT = { has_building = fort_15th }
						NOT = { has_building = fort_16th }
						NOT = { has_building = fort_17th }
						NOT = { has_building = fort_18th }
						num_free_building_slots = 1
						any_neighbor_province = {
							owner = {
								OR = {
									is_rival = root
									root = { is_rival = prev }
									AND = {
										is_subject_other_than_tributary_trigger = yes
										overlord = {
											OR = {
												is_rival = root
												root = { is_rival = prev }
											}
										}
									}
								}
							}
						}
						NOT = {
							any_neighbor_province = {
								owned_by = root
								OR = {
									has_building = fort_15th
									has_building = fort_16th
									has_building = fort_17th
									has_building = fort_18th
								}
							}
						}
					}
					AND = {
						NOT = { has_building = fort_15th }
						NOT = { has_building = fort_16th }
						NOT = { has_building = fort_17th }
						NOT = { has_building = fort_18th }
						num_free_building_slots = 1
						any_neighbor_province = {
							owned_by = root
							any_neighbor_province = {
								owner = {
									OR = {
										is_rival = root
										root = { is_rival = prev }
										AND = {
											is_subject_other_than_tributary_trigger = yes
											overlord = {
												OR = {
													is_rival = root
													root = { is_rival = prev }
												}
											}
										}
									}
								}
								NOT = {
									any_neighbor_province = {
										owned_by = root
										OR = {
											has_building = fort_15th
											has_building = fort_16th
											has_building = fort_17th
											has_building = fort_18th
										}
									}
								}
							}
						}
					}
					AND = {
						has_building = fort_15th
						ROOT = { mil_tech = 14 }
					}
					AND = {
						has_building = fort_16th
						ROOT = { mil_tech = 19 }
					}
					AND = {
						has_building = fort_17th
						ROOT = { mil_tech = 24 }
					}
				}
				NOT = { has_building = fort_18th }
			}
			save_event_target_as = agenda_province
		}
		random_owned_province = {
			limit = {
				OR = {
					AND = {
						NOT = { has_building = fort_15th }
						NOT = { has_building = fort_16th }
						NOT = { has_building = fort_17th }
						NOT = { has_building = fort_18th }
						num_free_building_slots = 1
						any_neighbor_province = {
							owner = {
								OR = {
									is_rival = root
									root = { is_rival = prev }
									AND = {
										is_subject_other_than_tributary_trigger = yes
										overlord = {
											OR = {
												is_rival = root
												root = { is_rival = prev }
											}
										}
									}
								}
							}
						}
						NOT = {
							any_neighbor_province = {
								owned_by = root
								OR = {
									has_building = fort_15th
									has_building = fort_16th
									has_building = fort_17th
									has_building = fort_18th
								}
							}
						}
						has_terrain = hills
					}
					AND = {
						NOT = { has_building = fort_15th }
						NOT = { has_building = fort_16th }
						NOT = { has_building = fort_17th }
						NOT = { has_building = fort_18th }
						num_free_building_slots = 1
						any_neighbor_province = {
							owned_by = root
							any_neighbor_province = {
								owner = {
									OR = {
										is_rival = root
										root = { is_rival = prev }
										AND = {
											is_subject_other_than_tributary_trigger = yes
											overlord = {
												OR = {
													is_rival = root
													root = { is_rival = prev }
												}
											}
										}
									}
								}
								NOT = {
									any_neighbor_province = {
										owned_by = root
										OR = {
											has_building = fort_15th
											has_building = fort_16th
											has_building = fort_17th
											has_building = fort_18th
										}
									}
								}
							}
						}
						has_terrain = hills
					}
					AND = {
						has_building = fort_15th
						ROOT = { mil_tech = 14 }
					}
					AND = {
						has_building = fort_16th
						ROOT = { mil_tech = 19 }
					}
					AND = {
						has_building = fort_17th
						ROOT = { mil_tech = 24 }
					}
				}
				NOT = { has_building = fort_18th }
			}
			save_event_target_as = agenda_province
		}
		random_owned_province = {
			limit = {
				OR = {
					AND = {
						NOT = { has_building = fort_15th }
						NOT = { has_building = fort_16th }
						NOT = { has_building = fort_17th }
						NOT = { has_building = fort_18th }
						num_free_building_slots = 1
						any_neighbor_province = {
							owner = {
								OR = {
									is_rival = root
									root = { is_rival = prev }
									AND = {
										is_subject_other_than_tributary_trigger = yes
										overlord = {
											OR = {
												is_rival = root
												root = { is_rival = prev }
											}
										}
									}
								}
							}
						}
						NOT = {
							any_neighbor_province = {
								owned_by = root
								OR = {
									has_building = fort_15th
									has_building = fort_16th
									has_building = fort_17th
									has_building = fort_18th
								}
							}
						}
						has_terrain = highlands
					}
					AND = {
						NOT = { has_building = fort_15th }
						NOT = { has_building = fort_16th }
						NOT = { has_building = fort_17th }
						NOT = { has_building = fort_18th }
						num_free_building_slots = 1
						any_neighbor_province = {
							owned_by = root
							any_neighbor_province = {
								owner = {
									OR = {
										is_rival = root
										root = { is_rival = prev }
										AND = {
											is_subject_other_than_tributary_trigger = yes
											overlord = {
												OR = {
													is_rival = root
													root = { is_rival = prev }
												}
											}
										}
									}
								}
								NOT = {
									any_neighbor_province = {
										owned_by = root
										OR = {
											has_building = fort_15th
											has_building = fort_16th
											has_building = fort_17th
											has_building = fort_18th
										}
									}
								}
							}
						}
						has_terrain = highlands
					}
					AND = {
						has_building = fort_15th
						ROOT = { mil_tech = 14 }
					}
					AND = {
						has_building = fort_16th
						ROOT = { mil_tech = 19 }
					}
					AND = {
						has_building = fort_17th
						ROOT = { mil_tech = 24 }
					}
				}
				NOT = { has_building = fort_18th }
			}
			save_event_target_as = agenda_province
		}
		random_owned_province = {
			limit = {
				OR = {
					AND = {
						NOT = { has_building = fort_15th }
						NOT = { has_building = fort_16th }
						NOT = { has_building = fort_17th }
						NOT = { has_building = fort_18th }
						num_free_building_slots = 1
						any_neighbor_province = {
							owner = {
								OR = {
									is_rival = root
									root = { is_rival = prev }
									AND = {
										is_subject_other_than_tributary_trigger = yes
										overlord = {
											OR = {
												is_rival = root
												root = { is_rival = prev }
											}
										}
									}
								}
							}
						}
						NOT = {
							any_neighbor_province = {
								owned_by = root
								OR = {
									has_building = fort_15th
									has_building = fort_16th
									has_building = fort_17th
									has_building = fort_18th
								}
							}
						}
						has_terrain = mountain
					}
					AND = {
						NOT = { has_building = fort_15th }
						NOT = { has_building = fort_16th }
						NOT = { has_building = fort_17th }
						NOT = { has_building = fort_18th }
						num_free_building_slots = 1
						any_neighbor_province = {
							owned_by = root
							any_neighbor_province = {
								owner = {
									OR = {
										is_rival = root
										root = { is_rival = prev }
										AND = {
											is_subject_other_than_tributary_trigger = yes
											overlord = {
												OR = {
													is_rival = root
													root = { is_rival = prev }
												}
											}
										}
									}
								}
								NOT = {
									any_neighbor_province = {
										owned_by = root
										OR = {
											has_building = fort_15th
											has_building = fort_16th
											has_building = fort_17th
											has_building = fort_18th
										}
									}
								}
							}
						}
						has_terrain = mountain
					}
					AND = {
						has_building = fort_15th
						ROOT = { mil_tech = 14 }
					}
					AND = {
						has_building = fort_16th
						ROOT = { mil_tech = 19 }
					}
					AND = {
						has_building = fort_17th
						ROOT = { mil_tech = 24 }
					}
				}
				NOT = { has_building = fort_18th }
			}
			save_event_target_as = agenda_province
		}
		event_target:agenda_province = {
			if = {
				limit = {
					has_building = fort_17th
				}
				ROOT = {
					set_variable = {
						which = estate_mages_build_fort_building_in_y_var
						value = 4
					}
				}
			}
			else_if = {
				limit = {
					has_building = fort_16th
				}
				ROOT = {
					set_variable = {
						which = estate_mages_build_fort_building_in_y_var
						value = 3
					}
				}
			}
			else_if = {
				limit = {
					has_building = fort_15th
				}
				ROOT = {
					set_variable = {
						which = estate_mages_build_fort_building_in_y_var
						value = 2
					}
				}
			}
			else = {
				ROOT = {
					set_variable = {
						which = estate_mages_build_fort_building_in_y_var
						value = 1
					}
				}
			}
		}
	}
	provinces_to_highlight = {
		province_id = event_target:agenda_province
	}
	fail_if = {
		event_target:agenda_province = {
			NOT = { owned_by = root }
		}
	}
    task_requirements = {
		if = {
			limit = {
				check_variable = {
					which = estate_mages_build_fort_building_in_y_var
					value = 4
				}
			}
			event_target:agenda_province = {
				has_building = fort_18th
			}
		}
		else_if = {
			limit = {
				check_variable = {
					which = estate_mages_build_fort_building_in_y_var
					value = 3
				}
			}
			event_target:agenda_province = {
				OR = {
					has_building = fort_17th
					has_building = fort_18th
				}
			}
		}
		else_if = {
			limit = {
				check_variable = {
					which = estate_mages_build_fort_building_in_y_var
					value = 2
				}
			}
			event_target:agenda_province = {
				OR = {
					has_building = fort_16th
					has_building = fort_17th
					has_building = fort_18th
				}
			}
		}
		else = {
			event_target:agenda_province = {
				OR = {
					has_building = fort_15th
					has_building = fort_16th
					has_building = fort_17th
					has_building = fort_18th
				}
			}
		}
    }
    task_completed_effect = {
		add_estate_loyalty = {
			estate = estate_mages
			loyalty = 10
		}
		event_target:agenda_province = {
			add_base_production = 1
		}
    }
    failing_effect = {
		event_target:agenda_province = {
			if = {
				limit = { owned_by = root }
				add_named_unrest = {
					name = local_mages_displeased
					value = 5
				}
			}
		}
        add_estate_loyalty_modifier = {
            estate = estate_mages
			desc = EST_VAL_AGENDA_DENIED
			loyalty = -5
			duration = 7300
        }
    }
}


estate_mages_build_fort_building_on_precursor_relics = {
	can_select = {
		any_owned_province = {
			trade_goods = precursor_relics
			OR = {
				AND = {
					NOT = { has_building = fort_15th }
					NOT = { has_building = fort_16th }
					NOT = { has_building = fort_17th }
					NOT = { has_building = fort_18th }
					num_free_building_slots = 1
					any_neighbor_province = {
						owner = {
							OR = {
								is_rival = root
								root = { is_rival = prev }
								AND = {
									is_subject_other_than_tributary_trigger = yes
									overlord = {
										OR = {
											is_rival = root
											root = { is_rival = prev }
										}
									}
								}
							}
						}
					}
					NOT = {
						any_neighbor_province = {
							owned_by = root
							OR = {
								has_building = fort_15th
								has_building = fort_16th
								has_building = fort_17th
								has_building = fort_18th
							}
						}
					}
				}
				AND = {
					NOT = { has_building = fort_15th }
					NOT = { has_building = fort_16th }
					NOT = { has_building = fort_17th }
					NOT = { has_building = fort_18th }
					num_free_building_slots = 1
					any_neighbor_province = {
						owned_by = root
						any_neighbor_province = {
							owner = {
								OR = {
									is_rival = root
									root = { is_rival = prev }
									AND = {
										is_subject_other_than_tributary_trigger = yes
										overlord = {
											OR = {
												is_rival = root
												root = { is_rival = prev }
											}
										}
									}
								}
							}
							NOT = {
								any_neighbor_province = {
									owned_by = root
									OR = {
										has_building = fort_15th
										has_building = fort_16th
										has_building = fort_17th
										has_building = fort_18th
									}
								}
							}
						}
					}
				}
				AND = {
					has_building = fort_15th
					ROOT = { mil_tech = 14 }
				}
				AND = {
					has_building = fort_16th
					ROOT = { mil_tech = 19 }
				}
				AND = {
					has_building = fort_17th
					ROOT = { mil_tech = 24 }
				}
			}
			NOT = { has_building = fort_18th }
		}
	}
	selection_weight = {
		factor = 1
		modifier = {
			factor = 1.5
			any_neighbor_country = {
				OR = {
					is_rival = root
					root = { is_rival = prev }
				}
				army_size = root
			}
		}
	}
	pre_effect = {
		set_variable = {
			which = estate_mages_build_fort_building_in_y_var
			value = 0
		}
		random_owned_province = {
			limit = {
				trade_goods = precursor_relics
				OR = {
					AND = {
						NOT = { has_building = fort_15th }
						NOT = { has_building = fort_16th }
						NOT = { has_building = fort_17th }
						NOT = { has_building = fort_18th }
						num_free_building_slots = 1
						any_neighbor_province = {
							owner = {
								OR = {
									is_rival = root
									root = { is_rival = prev }
									AND = {
										is_subject_other_than_tributary_trigger = yes
										overlord = {
											OR = {
												is_rival = root
												root = { is_rival = prev }
											}
										}
									}
								}
							}
						}
						NOT = {
							any_neighbor_province = {
								owned_by = root
								OR = {
									has_building = fort_15th
									has_building = fort_16th
									has_building = fort_17th
									has_building = fort_18th
								}
							}
						}
					}
					AND = {
						NOT = { has_building = fort_15th }
						NOT = { has_building = fort_16th }
						NOT = { has_building = fort_17th }
						NOT = { has_building = fort_18th }
						num_free_building_slots = 1
						any_neighbor_province = {
							owned_by = root
							any_neighbor_province = {
								owner = {
									OR = {
										is_rival = root
										root = { is_rival = prev }
										AND = {
											is_subject_other_than_tributary_trigger = yes
											overlord = {
												OR = {
													is_rival = root
													root = { is_rival = prev }
												}
											}
										}
									}
								}
								NOT = {
									any_neighbor_province = {
										owned_by = root
										OR = {
											has_building = fort_15th
											has_building = fort_16th
											has_building = fort_17th
											has_building = fort_18th
										}
									}
								}
							}
						}
					}
					AND = {
						has_building = fort_15th
						ROOT = { mil_tech = 14 }
					}
					AND = {
						has_building = fort_16th
						ROOT = { mil_tech = 19 }
					}
					AND = {
						has_building = fort_17th
						ROOT = { mil_tech = 24 }
					}
				}
				NOT = { has_building = fort_18th }
			}
			save_event_target_as = agenda_province
		}
		random_owned_province = {
			limit = {
				OR = {
					AND = {
						NOT = { has_building = fort_15th }
						NOT = { has_building = fort_16th }
						NOT = { has_building = fort_17th }
						NOT = { has_building = fort_18th }
						num_free_building_slots = 1
						any_neighbor_province = {
							owner = {
								OR = {
									is_rival = root
									root = { is_rival = prev }
									AND = {
										is_subject_other_than_tributary_trigger = yes
										overlord = {
											OR = {
												is_rival = root
												root = { is_rival = prev }
											}
										}
									}
								}
							}
						}
						NOT = {
							any_neighbor_province = {
								owned_by = root
								OR = {
									has_building = fort_15th
									has_building = fort_16th
									has_building = fort_17th
									has_building = fort_18th
								}
							}
						}
						has_terrain = hills
					}
					AND = {
						NOT = { has_building = fort_15th }
						NOT = { has_building = fort_16th }
						NOT = { has_building = fort_17th }
						NOT = { has_building = fort_18th }
						num_free_building_slots = 1
						any_neighbor_province = {
							owned_by = root
							any_neighbor_province = {
								owner = {
									OR = {
										is_rival = root
										root = { is_rival = prev }
										AND = {
											is_subject_other_than_tributary_trigger = yes
											overlord = {
												OR = {
													is_rival = root
													root = { is_rival = prev }
												}
											}
										}
									}
								}
								NOT = {
									any_neighbor_province = {
										owned_by = root
										OR = {
											has_building = fort_15th
											has_building = fort_16th
											has_building = fort_17th
											has_building = fort_18th
										}
									}
								}
							}
						}
						has_terrain = hills
					}
					AND = {
						has_building = fort_15th
						ROOT = { mil_tech = 14 }
					}
					AND = {
						has_building = fort_16th
						ROOT = { mil_tech = 19 }
					}
					AND = {
						has_building = fort_17th
						ROOT = { mil_tech = 24 }
					}
				}
				NOT = { has_building = fort_18th }
			}
			save_event_target_as = agenda_province
		}
		random_owned_province = {
			limit = {
				OR = {
					AND = {
						NOT = { has_building = fort_15th }
						NOT = { has_building = fort_16th }
						NOT = { has_building = fort_17th }
						NOT = { has_building = fort_18th }
						num_free_building_slots = 1
						any_neighbor_province = {
							owner = {
								OR = {
									is_rival = root
									root = { is_rival = prev }
									AND = {
										is_subject_other_than_tributary_trigger = yes
										overlord = {
											OR = {
												is_rival = root
												root = { is_rival = prev }
											}
										}
									}
								}
							}
						}
						NOT = {
							any_neighbor_province = {
								owned_by = root
								OR = {
									has_building = fort_15th
									has_building = fort_16th
									has_building = fort_17th
									has_building = fort_18th
								}
							}
						}
						has_terrain = highlands
					}
					AND = {
						NOT = { has_building = fort_15th }
						NOT = { has_building = fort_16th }
						NOT = { has_building = fort_17th }
						NOT = { has_building = fort_18th }
						num_free_building_slots = 1
						any_neighbor_province = {
							owned_by = root
							any_neighbor_province = {
								owner = {
									OR = {
										is_rival = root
										root = { is_rival = prev }
										AND = {
											is_subject_other_than_tributary_trigger = yes
											overlord = {
												OR = {
													is_rival = root
													root = { is_rival = prev }
												}
											}
										}
									}
								}
								NOT = {
									any_neighbor_province = {
										owned_by = root
										OR = {
											has_building = fort_15th
											has_building = fort_16th
											has_building = fort_17th
											has_building = fort_18th
										}
									}
								}
							}
						}
						has_terrain = highlands
					}
					AND = {
						has_building = fort_15th
						ROOT = { mil_tech = 14 }
					}
					AND = {
						has_building = fort_16th
						ROOT = { mil_tech = 19 }
					}
					AND = {
						has_building = fort_17th
						ROOT = { mil_tech = 24 }
					}
				}
				NOT = { has_building = fort_18th }
			}
			save_event_target_as = agenda_province
		}
		random_owned_province = {
			limit = {
				OR = {
					AND = {
						NOT = { has_building = fort_15th }
						NOT = { has_building = fort_16th }
						NOT = { has_building = fort_17th }
						NOT = { has_building = fort_18th }
						num_free_building_slots = 1
						any_neighbor_province = {
							owner = {
								OR = {
									is_rival = root
									root = { is_rival = prev }
									AND = {
										is_subject_other_than_tributary_trigger = yes
										overlord = {
											OR = {
												is_rival = root
												root = { is_rival = prev }
											}
										}
									}
								}
							}
						}
						NOT = {
							any_neighbor_province = {
								owned_by = root
								OR = {
									has_building = fort_15th
									has_building = fort_16th
									has_building = fort_17th
									has_building = fort_18th
								}
							}
						}
						has_terrain = mountain
					}
					AND = {
						NOT = { has_building = fort_15th }
						NOT = { has_building = fort_16th }
						NOT = { has_building = fort_17th }
						NOT = { has_building = fort_18th }
						num_free_building_slots = 1
						any_neighbor_province = {
							owned_by = root
							any_neighbor_province = {
								owner = {
									OR = {
										is_rival = root
										root = { is_rival = prev }
										AND = {
											is_subject_other_than_tributary_trigger = yes
											overlord = {
												OR = {
													is_rival = root
													root = { is_rival = prev }
												}
											}
										}
									}
								}
								NOT = {
									any_neighbor_province = {
										owned_by = root
										OR = {
											has_building = fort_15th
											has_building = fort_16th
											has_building = fort_17th
											has_building = fort_18th
										}
									}
								}
							}
						}
						has_terrain = mountain
					}
					AND = {
						has_building = fort_15th
						ROOT = { mil_tech = 14 }
					}
					AND = {
						has_building = fort_16th
						ROOT = { mil_tech = 19 }
					}
					AND = {
						has_building = fort_17th
						ROOT = { mil_tech = 24 }
					}
				}
				NOT = { has_building = fort_18th }
			}
			save_event_target_as = agenda_province
		}
		event_target:agenda_province = {
			if = {
				limit = {
					has_building = fort_17th
				}
				ROOT = {
					set_variable = {
						which = estate_mages_build_fort_building_in_y_var
						value = 4
					}
				}
			}
			else_if = {
				limit = {
					has_building = fort_16th
				}
				ROOT = {
					set_variable = {
						which = estate_mages_build_fort_building_in_y_var
						value = 3
					}
				}
			}
			else_if = {
				limit = {
					has_building = fort_15th
				}
				ROOT = {
					set_variable = {
						which = estate_mages_build_fort_building_in_y_var
						value = 2
					}
				}
			}
			else = {
				ROOT = {
					set_variable = {
						which = estate_mages_build_fort_building_in_y_var
						value = 1
					}
				}
			}
		}
	}
	provinces_to_highlight = {
		province_id = event_target:agenda_province
	}
	fail_if = {
		event_target:agenda_province = {
			NOT = { owned_by = root }
		}
	}
    task_requirements = {
		if = {
			limit = {
				check_variable = {
					which = estate_mages_build_fort_building_in_y_var
					value = 4
				}
			}
			event_target:agenda_province = {
				has_building = fort_18th
			}
		}
		else_if = {
			limit = {
				check_variable = {
					which = estate_mages_build_fort_building_in_y_var
					value = 3
				}
			}
			event_target:agenda_province = {
				OR = {
					has_building = fort_17th
					has_building = fort_18th
				}
			}
		}
		else_if = {
			limit = {
				check_variable = {
					which = estate_mages_build_fort_building_in_y_var
					value = 2
				}
			}
			event_target:agenda_province = {
				OR = {
					has_building = fort_16th
					has_building = fort_17th
					has_building = fort_18th
				}
			}
		}
		else = {
			event_target:agenda_province = {
				OR = {
					has_building = fort_15th
					has_building = fort_16th
					has_building = fort_17th
					has_building = fort_18th
				}
			}
		}
    }
    task_completed_effect = {
		add_estate_loyalty = {
			estate = estate_mages
			loyalty = 10
		}
		event_target:agenda_province = {
			add_base_production = 1
		}
    }
    failing_effect = {
		event_target:agenda_province = {
			if = {
				limit = { owned_by = root }
				add_named_unrest = {
					name = local_mages_displeased
					value = 5
				}
			}
		}
        add_estate_loyalty_modifier = {
            estate = estate_mages
			desc = EST_VAL_AGENDA_DENIED
			loyalty = -5
			duration = 7300
        }
    }
}



#Condottieri against rival (with Mare Nostrum)
estate_mages_condottieri_rivals = {
	can_select = {
		has_dlc = "Mare Nostrum"
		is_at_war = no
		NOT = {
			any_country = {
				root = { is_renting_condottieri_to = prev }
			}
		}
		any_rival_country = {
			is_at_war = yes
			NOT = {
				is_in_war = {
					duration = 1095
				}
			}
			any_country = {
				war_with = prev
				num_of_cities = 5
				NOT = {
					border_distance = {
						who = root
						distance = 200
					}
				}
				NOT = { is_rival = root }
				NOT = { root = { is_rival = prev } }
				has_opinion = {
					who = root
					value = -50
				}
				is_free_or_tributary_trigger = yes
			}
		}
		manpower_percentage = 0.5
		army_size_percentage = 0.5
	}
	selection_weight = {
		factor = 2
		modifier = {
			factor = 2
			calc_true_if = {
				amount = 5
				all_country = {
					coalition_target = root
				}
			}
		}
		modifier = {
			factor = 0.5
			NOT = {
				any_country = {
					coalition_target = root
					army_size = root
				}
			}
		}
	}
	pre_effect = {
		random_rival_country = {
			limit = {
				is_at_war = yes
				NOT = {
					is_in_war = {
						duration = 1095
					}
				}
				any_country = {
					war_with = prev
					num_of_cities = 5
					NOT = {
						border_distance = {
							who = root
							distance = 200
						}
					}
					NOT = { is_rival = root }
					NOT = { root = { is_rival = prev } }
					has_opinion = {
						who = root
						value = -50
					}
					is_free_or_tributary_trigger = yes
				}
			}
			save_event_target_as = agenda_country
			random_country = {
				limit = {
					war_with = prev
					num_of_cities = 5
					NOT = {
						border_distance = {
							who = root
							distance = 200
						}
					}
					NOT = { is_rival = root }
					NOT = { root = { is_rival = prev } }
					has_opinion = {
						who = root
						value = -50
					}
					is_free_or_tributary_trigger = yes
				}
				save_event_target_as = agenda_enemy_country
			}
		}
	}
	fail_if = {
		OR = {
			is_subject = yes
			is_at_war = yes
			event_target:agenda_country = {
				OR = {
					is_at_war = no
					NOT = { num_of_cities = 1 }
				}
			}
		}
	}
	provinces_to_highlight = {
		is_capital = yes
		owner = {
			war_with = event_target:agenda_country
		}
	}
	task_requirements = {
		any_country = {
			war_with = event_target:agenda_country
			custom_trigger_tooltip = {
				tooltip = sending_condottieri_to_them
				ROOT = { is_renting_condottieri_to = prev }
			}
		}
	}
	task_completed_effect = {
		add_estate_loyalty = {
			estate = estate_mages
			loyalty = 10
		}
		add_mil_power = 50
	}
    failing_effect = {
        add_estate_loyalty_modifier = {
            estate = estate_mages
			desc = EST_VAL_AGENDA_DENIED
			loyalty = -5
			duration = 7300
        }
    }
}



#Get allies
estate_mages_ally_pro_mage_countries = {
	can_select = {
		is_at_war = no
		num_of_free_diplomatic_relations = 1
		OR = { #only valid for non-subjects or subjects who are able to ally
			is_subject = no
			is_subject_of_type = great_daimyo_vassal
			is_subject_of_type = daimyo_vassal
			is_subject_of_type = daimyo_xiaken_vassal
			is_subject_of_type = tributary_state
		}
		any_known_country = {
			has_estate = estate_mages # has loyal mages
			estate_loyalty = {
				estate = estate_mages
				loyalty = 60
			}
			NOT = { war_with = ROOT } # not currently at war
			NOT = { is_rival = ROOT } # not an enemy
			NOT = { ROOT = { is_rival = PREV } } # not a rival
			has_opinion = { who = ROOT value = -50 } # not awful relations
			NOT = { alliance_with = ROOT } # not already allied
			NOT = { # target is within 100 distance
				border_distance = {
					who = ROOT
					distance = 100
				}
			}
			OR = { 
				AND = { # Case 1: Country is not in the Raj
					OR = { # target is not a subject or is a tributary (is not in the Raj)
						is_subject = no
						is_subject_of_type = tributary_state
					}
					ROOT = { # Country is not in the Raj
						AND = { 
							NOT = {	is_subject_of_type = great_daimyo_vassal }
							NOT = { is_subject_of_type = daimyo_vassal }
							NOT = { is_subject_of_type = daimyo_xiaken_vassal }
						}
					}
				}
				AND = { # Case 2: Country is in the Raj
					ROOT = { # Country is in the Raj
						OR = {
							is_subject_of_type = great_daimyo_vassal
							is_subject_of_type = daimyo_vassal
							is_subject_of_type = daimyo_xiaken_vassal
						}
					}
					OR = { # target is also in the Raj
						is_subject_of_type = great_daimyo_vassal
						is_subject_of_type = daimyo_vassal
						is_subject_of_type = daimyo_xiaken_vassal
					}
				}
			}
		}
	}
	selection_weight = {
		factor = 1
		modifier = {
			factor = 2
			NOT = { num_of_allies = 1 }
			NOT = { num_of_subjects = 1 }
		}
	}
	pre_effect = {
		random_known_country = {
			limit = {
				has_estate = estate_mages
				estate_loyalty = {
					estate = estate_mages
					loyalty = 60
				}
				NOT = { war_with = ROOT }
				NOT = { is_rival = ROOT }
				NOT = { ROOT = { is_rival = PREV } }
				has_opinion = { who = ROOT value = -50 }
				NOT = { alliance_with = ROOT }
				NOT = {
					border_distance = {
						who = ROOT
						distance = 100
					}
				}
				OR = { 
					AND = {
						OR = {
							is_subject = no
							is_subject_of_type = tributary_state
						}
						ROOT = {
							AND = { 
								NOT = {	is_subject_of_type = great_daimyo_vassal }
								NOT = { is_subject_of_type = daimyo_vassal }
								NOT = { is_subject_of_type = daimyo_xiaken_vassal }
							}
						}
					}
					AND = {
						ROOT = {
							OR = {
								is_subject_of_type = great_daimyo_vassal
								is_subject_of_type = daimyo_vassal
								is_subject_of_type = daimyo_xiaken_vassal
							}
						}
						OR = { 
							is_subject_of_type = great_daimyo_vassal
							is_subject_of_type = daimyo_vassal
							is_subject_of_type = daimyo_xiaken_vassal
						}
					}
				}
			}
			save_event_target_as = agenda_country
		}
	}
	fail_if = {
		event_target:agenda_country = {
			OR = {
				war_with = ROOT #can't ally at war
				exists = no     #can't rival nonexistent
				is_rival = ROOT #can't ally rival
			}
		}
	}
	invalid_trigger = {
		event_target:agenda_country = {
			NOT = { has_estate = estate_mages }
		}
	}
	provinces_to_highlight = {
		is_capital_of = event_target:agenda_country
	}
	task_requirements = { #Only need alliance to succeed, don't care about the state of mages at the time of the alliance
		alliance_with = event_target:agenda_country
	}
	task_completed_effect = {
		add_estate_loyalty = {
			estate = estate_mages
			loyalty = 10
		}
		add_dip_power = 50
	}
    failing_effect = {
        add_estate_loyalty_modifier = {
            estate = estate_mages
			desc = EST_VAL_AGENDA_DENIED
			loyalty = -5
			duration = 7300
        }
    }
}

#Develop Damestear province in y
estate_mages_develop_damestear_in_y = {
	selection_weight = {
		factor = 1
	}
	can_select = {
		any_owned_province = {
			trade_goods = damestear
		}
	}
	pre_effect = {
		random_owned_province = {
			limit = {
				trade_goods = damestear
			}
			save_event_target_as = agenda_province
		}
		event_target:agenda_province = {
			if = {
				limit = {
					check_variable = {
						which = province_adm_var
						value = 1
					}
				}
				set_variable = {
					which = province_adm_var
					value = 0
				}
			}
			export_to_variable = {
				which = province_adm_var
				value = trigger_value:base_tax
			}
			change_variable = {
				which = province_adm_var
				value = 2
			}
		}
	}
	provinces_to_highlight = {
		province_id = event_target:agenda_province
	}
	fail_if = {
		event_target:agenda_province = {
			NOT = { owned_by = root }
		}
	}
    task_requirements = {
		event_target:agenda_province = {
			base_tax = "province_adm_var"
		}
    }
    task_completed_effect = {
		add_estate_loyalty = {
			estate = estate_mages
			loyalty = 10
		}
		add_prestige = 10
    }
    failing_effect = {
		event_target:agenda_province = {
			if = {
				limit = { owned_by = root }
				add_named_unrest = {
					name = local_mages_displeased
					value = 5
				}
			}
		}
        add_estate_loyalty_modifier = {
            estate = estate_mages
			desc = EST_VAL_AGENDA_DENIED
			loyalty = -5
			duration = 7300
        }
    }
}

#Develop Precursor Relics province in y
estate_mages_develop_precursor_relics_in_y = {
	selection_weight = {
		factor = 1
	}
	can_select = {
		any_owned_province = {
			trade_goods = precursor_relics
		}
	}
	pre_effect = {
		random_owned_province = {
			limit = {
				trade_goods = precursor_relics
			}
			save_event_target_as = agenda_province
		}
		event_target:agenda_province = {
			if = {
				limit = {
					check_variable = {
						which = province_adm_var
						value = 1
					}
				}
				set_variable = {
					which = province_adm_var
					value = 0
				}
			}
			export_to_variable = {
				which = province_adm_var
				value = trigger_value:base_tax
			}
			change_variable = {
				which = province_adm_var
				value = 2
			}
		}
	}
	provinces_to_highlight = {
		province_id = event_target:agenda_province
	}
	fail_if = {
		event_target:agenda_province = {
			NOT = { owned_by = root }
		}
	}
    task_requirements = {
		event_target:agenda_province = {
			base_tax = "province_adm_var"
		}
    }
    task_completed_effect = {
		add_estate_loyalty = {
			estate = estate_mages
			loyalty = 10
		}
		add_prestige = 10
    }
    failing_effect = {
		event_target:agenda_province = {
			if = {
				limit = { owned_by = root }
				add_named_unrest = {
					name = local_mages_displeased
					value = 5
				}
			}
		}
        add_estate_loyalty_modifier = {
            estate = estate_mages
			desc = EST_VAL_AGENDA_DENIED
			loyalty = -5
			duration = 7300
        }
    }
}

#Mage Towers
estate_mages_build_mage_tower_in_y = {
	can_select = {
		adm_tech = 3
		any_owned_province = {
			is_state_core = root
			has_no_manufactory_trigger = yes
			OR = {
				development = 10
				is_capital = yes
			}
		}
		monthly_income = 30
	}
	selection_weight = {
		factor = 1
		modifier = {
			factor = 0.5
			OR = {
				current_age = age_of_discovery
				current_age = age_of_reformation
			}
		}
		modifier = {
			factor = 0.5
			NOT = { monthly_income = 40 }
		}
		modifier = {
			factor = 2
			monthly_income = 60
		}
		modifier = {
			factor = 2
			is_institution_enabled = manufactories
			NOT = { has_institution = manufactories }
		}
	}
	pre_effect = {
		random_owned_province = {
			limit = {
				is_state_core = root
				has_no_manufactory_trigger = yes
				NOT = { has_building = mage_tower }
				development = 10
			}
			save_event_target_as = agenda_province
		}
		random_owned_province = {
			limit = {
				is_state_core = root
				has_no_manufactory_trigger = yes
				NOT = { has_building = mage_tower }
				development = 15
			}
			save_event_target_as = agenda_province
		}
		random_owned_province = {
			limit = {
				is_state_core = root
				has_no_manufactory_trigger = yes
				NOT = { has_building = mage_tower }
				development = 20
			}
			save_event_target_as = agenda_province
		}
		random_owned_province = {
			limit = {
				is_state_core = root
				has_no_manufactory_trigger = yes
				NOT = { has_building = mage_tower }
				is_capital = yes
			}
			save_event_target_as = agenda_province
		}
		random_owned_province = {
			limit = {
				is_state_core = root
				has_no_manufactory_trigger = yes
				NOT = { has_building = mage_tower }
				development = 10
				OR = {
					trade_goods = damestear
					trade_goods = precursor_relics
					trade_goods = incense
					trade_goods = chinaware
				}
			}
			save_event_target_as = agenda_province
		}
		random_owned_province = {
			limit = {
				is_state_core = root
				has_no_manufactory_trigger = yes
				NOT = { has_building = mage_tower }
				development = 15
				OR = {
					trade_goods = damestear
					trade_goods = precursor_relics
					trade_goods = incense
					trade_goods = chinaware
				}
			}
			save_event_target_as = agenda_province
		}
		random_owned_province = {
			limit = {
				is_state_core = root
				has_no_manufactory_trigger = yes
				NOT = { has_building = mage_tower }
				development = 20
				OR = {
					trade_goods = damestear
					trade_goods = precursor_relics
					trade_goods = incense
					trade_goods = chinaware
				}
			}
			save_event_target_as = agenda_province
		}
		random_owned_province = {
			limit = {
				is_state_core = root
				has_no_manufactory_trigger = yes
				NOT = { has_building = mage_tower }
				is_capital = yes
				OR = {
					trade_goods = damestear
					trade_goods = precursor_relics
					trade_goods = incense
					trade_goods = chinaware
				}
			}
			save_event_target_as = agenda_province
		}
	}
	provinces_to_highlight = {
		province_id = event_target:agenda_province
	}
	fail_if = {
		event_target:agenda_province = {
			NOT = { owned_by = root }
		}
	}
    task_requirements = {
		event_target:agenda_province = {
			has_building = mage_tower
		}
    }
    task_completed_effect = {
		add_estate_loyalty = {
			estate = estate_mages
			loyalty = 10
		}
		add_adm_power = 35
		add_dip_power = 35
		add_mil_power = 35
    }
    failing_effect = {
		event_target:agenda_province = {
			if = {
				limit = { owned_by = root }
				add_named_unrest = {
					name = local_mages_displeased
					value = 5
				}
			}
		}
        add_estate_loyalty_modifier = {
            estate = estate_mages
			desc = EST_VAL_AGENDA_DENIED
			loyalty = -5
			duration = 7300
        }
    }
}

#Develop x province
estate_mages_develop_x = {
	selection_weight = {
		factor = 1
	}
	can_select = {
		capital_scope = {
			is_state_core = root
		}
	}
	pre_effect = {
		random_list = {
			1 = {
				random_owned_province = {
					limit = {
						is_state_core = root
						area_for_scope_province = {
							is_capital_of = root
						}
					}
					save_event_target_as = agenda_province
				}
			}
			2 = {
				trigger = {
					any_owned_province = {
						is_state_core = root
						OR = {
							AND = {
								religion = root
								OR = {
									culture = root
									has_owner_accepted_culture = yes
								}
							}
						}
						region_for_scope_province = {
							is_capital_of = root
						}
					}
				}
				random_owned_province = {
					limit = {
						is_state_core = root
						OR = {
							AND = {
								religion = root
								OR = {
									culture = root
									has_owner_accepted_culture = yes
								}
							}
						}
						region_for_scope_province = {
							is_capital_of = root
						}
					}
					save_event_target_as = agenda_province
				}
			}
			1 = {
				random_owned_province = {
					limit = {
						is_state_core = root
					}
					save_event_target_as = agenda_province
				}
			}
		}
		event_target:agenda_province = {
			if = {
				limit = {
					check_variable = {
						which = province_adm_var
						value = 1
					}
				}
				set_variable = {
					which = province_adm_var
					value = 0
				}
			}
			export_to_variable = {
				which = province_adm_var
				value = trigger_value:base_tax
			}
			change_variable = {
				which = province_adm_var
				value = 2
			}
		}
	}
	provinces_to_highlight = {
		province_id = event_target:agenda_province
	}
	fail_if = {
		event_target:agenda_province = {
			NOT = { owned_by = root }
		}
	}
    task_requirements = {
		event_target:agenda_province = {
			base_tax = "province_adm_var"
		}
    }
    task_completed_effect = {
		add_estate_loyalty = {
			estate = estate_mages
			loyalty = 10
		}
		add_prestige = 10
    }
    failing_effect = {
		event_target:agenda_province = {
			if = {
				limit = { owned_by = root }
				add_named_unrest = {
					name = local_mages_displeased
					value = 5
				}
			}
		}
        add_estate_loyalty_modifier = {
            estate = estate_mages
			desc = EST_VAL_AGENDA_DENIED
			loyalty = -5
			duration = 7300
        }
    }
}
