#367 - The Azores

owner = A29
controller = A29
add_core = A29
culture = busilari
religion = regent_court

hre = no

base_tax = 3
base_production = 4
base_manpower = 3

trade_goods = copper

capital = ""

is_city = yes










