# No previous file for Perak
owner = F37
controller = F37
add_core = F37
culture = sun_elf
religion = bulwari_sun_cult

hre = no

base_tax = 4
base_production = 4
base_manpower = 2

trade_goods = grain

capital = ""

is_city = yes












add_permanent_province_modifier = {
	name = human_minority_coexisting_large
	duration = -1
}
