# No previous file for Cao Bang
owner = F33
controller = F33
add_core = F33
culture = zanite
religion = bulwari_sun_cult

hre = no

base_tax = 5
base_production = 5
base_manpower = 4

trade_goods = grain

capital = ""

is_city = yes













add_permanent_province_modifier = {
	name = elven_minority_integrated_large
	duration = -1
}