# No previous file for Chengdu
owner = F05
controller = F05
add_core = F05
culture = brasanni
religion = bulwari_sun_cult

hre = no

base_tax = 1
base_production = 1
base_manpower = 2

trade_goods = spices

capital = ""

is_city = yes









