countsleague_first_slot = {
	slot = 1
	generic = no
	ai = yes
	potential = {
		tag = B55
		
	}
	has_country_shield = yes
	
	
	CL_escanni_military_traditions = {
		icon = mission_junnagadh_fort
		ai = yes
		position = 1
		required_missions = { } 
		trigger = {
			manpower_percentage = 0.75
			}
		effect = {
			add_country_modifier = {
				name = "CL_escanni_traditions"
				duration = 9125 #25 years
			}
		}
	}
	
	CL_rebuilding_our_army = {
		icon = mission_assemble_an_army
		ai = yes
		position = 2
		required_missions = { CL_escanni_military_traditions } 
		trigger = {
			army_size = 20
			}
		effect = {
			add_country_modifier = {
				name = "army_enthusiasm"
				duration = 9125 #25 years
			}
		}
	}
	
	CL_gate_to_the_south = {
		icon = mission_great_wall
		ai = yes
		position = 3
		required_missions = { CL_retaking_the_nath }
		provinces_to_highlight = {
			OR = {
				area = southgate_area
			}
			NOT = {
				country_or_non_sovereign_subject_holds = ROOT
			}
		}
		trigger = {
			southgate_area = {
				type = all
				country_or_non_sovereign_subject_holds = ROOT
			}
		}
		effect = {
			add_country_modifier = {
				name = "colonial_enthusiasm"
				duration = 7300
			}
			nortmere_area = {
				limit = {
					NOT = { is_core = ROOT }
					NOT = { owned_by = ROOT }
				}
				add_permanent_claim = ROOT
			}
		}
	}
	
	CL_equipping_our_army = {
		icon = mission_teutonic_knights
		ai = yes
		position = 4
		trigger = {
			num_of_provinces_in_states = 3
			iron = 1
		}
		effect = {
			add_years_of_income = -0.5
			random_owned_province = {
				limit = {
					trade_goods = iron
				}
				add_base_production = 3
				add_permanent_province_modifier = {
					name = adv_big_forge
					duration = 18250
				}
			}
		}
	}
}

countsleague_second_slot = {
	slot = 2
	generic = no
	ai = yes
	potential = {
		tag = B55
		
	}
	has_country_shield = yes
	
	CL_retaking_the_nath = {
		icon = mission_conquer_5_states
		ai = yes
		position = 2
		required_missions = { CL_reclamation } 
		provinces_to_highlight = {
			OR = {
				area = upper_nath_area
			}
			NOT = {
				country_or_non_sovereign_subject_holds = ROOT
			}
		}
		trigger = {
			upper_nath_area = {
				type = all
				country_or_non_sovereign_subject_holds = ROOT
			}
		}
		effect = {
			add_country_modifier = {
				name = "colonial_enthusiasm"
				duration = 7300
			}
			castonath_area = {
				limit = {
					NOT = { is_core = ROOT }
					NOT = { owned_by = ROOT }
				}
				add_permanent_claim = ROOT
			}
			southgate_area = {
				limit = {
					NOT = { is_core = ROOT }
					NOT = { owned_by = ROOT }
				}
				add_permanent_claim = ROOT
			}
		}
	}
	
	CL_city_of_castan = {
		icon = mission_unite_the_princes
		ai = yes
		position = 3
		required_missions = { CL_retaking_the_nath } 
		provinces_to_highlight = {
			OR = {
				area = castonath_area
			}
			NOT = {
				country_or_non_sovereign_subject_holds = ROOT
			}
		}
		trigger = {
			castonath_area = {
				type = all
				country_or_non_sovereign_subject_holds = ROOT
			}
		}
		effect = {
			add_country_modifier = {
				name = "colonial_enthusiasm"
				duration = 7300
			}
			trialmount_area = {
				limit = {
					NOT = { is_core = ROOT }
					NOT = { owned_by = ROOT }
				}
				add_permanent_claim = ROOT
			}
		}
	}
	
	CL_feeding_our_people = {
		icon = mission_rice_field
		ai = yes
		position = 4
		trigger = {
			num_of_provinces_in_states = 5
			grain = 3
		}
		effect = {
			add_years_of_income = -0.5
			random_owned_province = {
				limit = {
					trade_goods = grain
				}
				add_base_manpower = 1
				add_base_production = 2
				add_permanent_province_modifier = {
					name = adv_grain_production
					duration = 18250
				}
			}
			random_owned_province = {
				limit = {
					trade_goods = grain
				}
				add_base_manpower = 1
				add_base_production = 2
				add_permanent_province_modifier = {
					name = adv_grain_production
					duration = 18250
				}
			}
			random_owned_province = {
				limit = {
					trade_goods = grain
				}
				add_base_manpower = 1
				add_base_production = 2
				add_permanent_province_modifier = {
					name = adv_grain_production
					duration = 18250
				}
			}
		}
	}
}
	
countsleague_third_slot = {
	slot = 3
	generic = no
	ai = yes
	potential = {
		tag = B55
		
	}
	has_country_shield = yes
	
	CL_reclamation = {
		icon = mission_iberian_conquistador
		ai = yes
		position = 1
		required_missions = { } 
		provinces_to_highlight = {
			OR = {
				area = area75_area
			}
			NOT = {
				country_or_non_sovereign_subject_holds = ROOT
			}
		}
		trigger = {
			stability = 1
			area75_area = {
				type = all
				country_or_non_sovereign_subject_holds = ROOT
			}
		}
		effect = {
			add_country_modifier = {
				name = "colonial_enthusiasm"
				duration = 7300
			}
			upper_nath_area = {
				limit = {
					NOT = { is_core = ROOT }
					NOT = { owned_by = ROOT }
				}
				add_permanent_claim = ROOT
			}
			ardent_glade_area = {
				limit = {
					NOT = { is_core = ROOT }
					NOT = { owned_by = ROOT }
				}
				add_permanent_claim = ROOT
			}
			area77_area = {
				limit = {
					NOT = { is_core = ROOT }
					NOT = { owned_by = ROOT }
				}
				add_permanent_claim = ROOT
			}
		}
	}
	
	CL_ardent_glade = {
		icon = mission_rb_conquer_bengal
		ai = yes
		position = 2
		required_missions = { CL_reclamation } 
		provinces_to_highlight = {
			OR = {
				area = ardent_glade_area
			}
			NOT = {
				country_or_non_sovereign_subject_holds = ROOT
			}
		}
		trigger = {
			ardent_glade_area = {
				type = all
				country_or_non_sovereign_subject_holds = ROOT
			}
		}
		effect = {
			add_country_modifier = {
				name = "colonial_enthusiasm"
				duration = 7300
			}
			coalwoud_area = {
				limit = {
					NOT = { is_core = ROOT }
					NOT = { owned_by = ROOT }
				}
				add_permanent_claim = ROOT
			}
		}
	}
	
	CL_coalwoud = {
		icon = mission_rb_conquer_the_highlands
		ai = yes
		position = 3
		required_missions = { CL_ardent_glade } 
		provinces_to_highlight = {
			OR = {
				area = coalwoud_area
			}
			NOT = {
				country_or_non_sovereign_subject_holds = ROOT
			}
		}
		trigger = {
			coalwoud_area = {
				type = all
				country_or_non_sovereign_subject_holds = ROOT
			}
		}
		effect = {
			add_country_modifier = {
				name = "colonial_enthusiasm"
				duration = 7300
			}
			serpentsmarck_area = {
				limit = {
					NOT = { is_core = ROOT }
					NOT = { owned_by = ROOT }
				}
				add_permanent_claim = ROOT
			}
		}
	}
	
	CL_ardent_capital = {
		icon = mission_develop_alhambra
		ai = yes
		position = 4
		required_missions = {  }
		trigger = {
			owns_core_province = 865
		}
		effect = {
			
			add_dip_power = -150
			865 = {
				move_capital_effect = yes
				add_province_modifier = {
					name = adv_administration
					duration = 18250
				}
			}
			if = {
				limit = {
					865 = {
						OR = {
							NOT = {
								trade_goods = gold
								trade_goods = gems
								trade_goods = mithril
								trade_goods = damestear
							}
						}
					}
				}
				random_list = {
					40 = {
						865 = { change_trade_goods = cloth }
					}
					30 = {
						865 = { change_trade_goods = glass }
					}
					30 = {
						865 = { change_trade_goods = paper }
					}
				}
			}
		}
	}
	
	CL_developing_the_glade = {
		icon = mission_unite_home_region
		ai = yes
		position = 5
		required_missions = { CL_ardent_capital } 
		provinces_to_highlight = {
			OR = {
				area = ardent_glade_area
			}
			NOT = {
				country_or_non_sovereign_subject_holds = ROOT
			}
		}
		
		trigger = {
			ardent_glade_area = {
				type = all
				country_or_non_sovereign_subject_holds = ROOT
			}
			865 = { development = 18 }
		}
		effect = {
			865 = {
				add_base_tax = 2
				add_base_manpower = 2
				add_base_production = 2
				change_culture = castellyrian
				change_religion = ROOT
			}
			864 = {
				add_base_tax = 2
				add_base_manpower = 2
				add_base_production = 2
				change_culture = castellyrian
				change_religion = ROOT
			}
			869 = {
				add_base_tax = 2
				add_base_manpower = 2
				add_base_production = 2
				change_culture = castellyrian
				change_religion = ROOT
			}
		}
	}
}
	
countsleague_fourth_slot = {
	slot = 4
	generic = no
	ai = yes
	potential = {
		tag = B55
		
	}
	has_country_shield = yes
	
	CL_into_the_woods = {
		icon = mission_colonial
		ai = yes
		position = 2
		required_missions = { CL_reclamation } 
		provinces_to_highlight = {
			OR = {
				area = area77_area
			}
			NOT = {
				country_or_non_sovereign_subject_holds = ROOT
			}
		}
		trigger = {
			area77_area = {
				type = all
				country_or_non_sovereign_subject_holds = ROOT
			}
		}
		effect = {
			add_country_modifier = {
				name = "colonial_enthusiasm"
				duration = 7300
			}
			area76_area = {
				limit = {
					NOT = { is_core = ROOT }
					NOT = { owned_by = ROOT }
				}
				add_permanent_claim = ROOT
			}
			area78_area = {
				limit = {
					NOT = { is_core = ROOT }
					NOT = { owned_by = ROOT }
				}
				add_permanent_claim = ROOT
			}
		}
	}
	
	CL_highland_forests = {
		icon = mission_protect_albania
		ai = yes
		position = 3
		required_missions = { CL_into_the_woods } 
		provinces_to_highlight = {
			OR = {
				area = area76_area
			}
			NOT = {
				country_or_non_sovereign_subject_holds = ROOT
			}
		}
		trigger = {
			area76_area = {
				type = all
				country_or_non_sovereign_subject_holds = ROOT
			}
		}
		effect = {
			add_country_modifier = {
				name = "colonial_enthusiasm"
				duration = 7300
			}
			steelhyl_area = {
				limit = {
					NOT = { is_core = ROOT }
					NOT = { owned_by = ROOT }
				}
				add_permanent_claim = ROOT
			}
		}
	}
	
	CL_putting_invaders_to_work = {
		icon = mission_asian_trader
		ai = yes
		position = 4
		trigger = {
			num_of_provinces_in_states = 3
			slaves = 1
		}
		effect = {
			add_years_of_income = -0.5
			random_owned_province = {
				limit = {
					trade_goods = slaves
				}
				add_base_tax = 3
				add_permanent_province_modifier = {
					name = adv_dev
					duration = 18250
				}
			}
		}
	}
}
	
countsleague_fifth_slot = {
	slot = 5
	generic = no
	ai = yes
	potential = {
		tag = B55
		
	}
	has_country_shield = yes
	
	CL_negotiating_with_adventurers = {
		icon = mission_monarch_in_throne_room
		ai = yes
		position = 1
		trigger = {
			any_ally = {
				has_reform = adventurer_reform
			}
		}
		effect = {
			random_ally = {
				limit = {
					has_reform = adventurer_reform
				}
				add_opinion = {
					who = ROOT
					modifier = opinion_adv_ally
					years = 75
				}
				reverse_add_opinion = {
					who = ROOT
					modifier = opinion_adv_ally
					years = 75
				}
			}
		}
	}
	
	CL_fighting_orcs = {
		icon = mission_pf_soldier
		ai = yes
		position = 2
		trigger = {
			is_in_war = {
				casus_belli = cb_civ_vs_monster
			}
		}
		effect = {
			add_country_modifier = {
				name = adv_war_ork_modifier
				duration = 9125
			}
		}
	}
	
	CL_eastern_hills = {
		icon = mission_war_chest
		ai = yes
		position = 3
		required_missions = { CL_into_the_woods } 
		provinces_to_highlight = {
			OR = {
				area = area78_area
			}
			NOT = {
				country_or_non_sovereign_subject_holds = ROOT
			}
		}
		trigger = {
			area78_area = {
				type = all
				country_or_non_sovereign_subject_holds = ROOT
			}
		}
		effect = {
			add_country_modifier = {
				name = "colonial_enthusiasm"
				duration = 7300
			}
			area80_area = {
				limit = {
					NOT = { is_core = ROOT }
					NOT = { owned_by = ROOT }
				}
				add_permanent_claim = ROOT
			}
		}
	}
	
	CL_riches_of_escann = {
		icon = mission_african_gold
		ai = yes
		position = 3
		trigger = {
			num_of_provinces_in_states = 3
			gold = 1
		}
		effect = {
			add_years_of_income = -0.5
			random_owned_province = {
				limit = {
					trade_goods = gold
				}
				add_base_tax = 2
				add_base_production = 2
				add_permanent_province_modifier = {
					name = adv_bank
					duration = 18250
				}
			}
		}
	}
}
	