kethur_missions = {
	slot = 1
	generic = no
	ai = yes
	potential = {
		tag = R21
	}
	has_country_shield = yes
	
	showing_respect_mission = { 
		icon = mission_kowtow
		required_missions = {  } 
		position = 1
		trigger = {
			R37 = {
				has_opinion = {
					who = ROOT
					value = 190
				}
			}
		}
		effect = {
			add_prestige = 10
			medium_increase_of_harimari_tolerance_effect = yes
		}
	}

	showing_strength_mission = {
		icon = mission_end_tamil_insurgency
		required_missions = {showing_respect_mission}
		position = 2
		trigger = {
			power_projection = 25
		}
		effect = {
			4489 = {
				add_human_minority_size_effect = yes
			}
			custom_tooltip = SARISUNG_EVENT
			hidden_effect = {
				country_event = {
					id = flavour_sarisung.1
					days = 20
					random = 10
				}
			}
		}
	}

	showing_leadership_mission = {
		icon = mission_defeat_mewar
		required_missions = {showing_strength_mission}
		position = 3
		trigger = {
			R37 = {
				NOT = {
					num_of_rebel_armies = 1
				}
			}
			mil = 6
		}
		effect = {
			inherit = R37
			4500 = {
				add_harimari_minority_size_effect = yes
			}
			4470 = {
				add_harimari_minority_size_effect = yes
			}
			4620 = {
				add_harimari_minority_size_effect = yes
			}
			4364 = {
				add_harimari_minority_size_effect = yes
			}
		}
	}
}

metropolis_missions = {
	slot = 1
	generic = no
	ai = yes
	potential = {
		tag = R21
	}
	has_country_shield = yes

	city_of_encounters_mission = { 
		icon = mission_interfaith_relations
		required_missions = {  } 
		position = 4
		trigger = {
			has_advisor = yes
			NOT = {
				OR = {
					employed_advisor = {
						culture = sarisungi
					}
					employed_advisor = {
						religion = high_philosophy
					}
				}
			}
		}
		effect = {
			if = {
				limit = {
					has_dlc = "Rule Britannia"
				}
				change_innovativeness = 5
			}
			else = {
				change_government_reform_progress = 25
			}
		}
	}

	the_seven_bridges_mission = { 
		icon = mission_defeat_jaunpur
		required_missions = {city_of_encounters_mission} 
		position = 5
		trigger = {
			4500 = {
				has_building = university
			}
		}
		effect = {
			if = {
				limit = {
					has_dlc = "Rule Britannia"
				}
				change_innovativeness = 5
			}
			else = {
				change_government_reform_progress = 25
			}
		}
	}

	capital_of_a_continent_mission = { 
		icon = mission_growth_of_ahmedabad
		required_missions = {the_seven_bridges_mission}
		position = 6
		trigger = {
			development_in_provinces = {
				value = 100
				area = sarisung_area
			}
		}
		effect = {
			if = {
				limit = {
					has_dlc = "Rule Britannia"
				}
				change_innovativeness = 5
			}
			else = {
				change_government_reform_progress = 25
			}
		}
	}
}

nundujisbid_missions = {
	slot = 2
	generic = no
	ai = yes
	potential = {
		tag = R21
	}
	has_country_shield = yes
	
	threaten_figureheads_mission = { 
		icon = mission_impaled_soldies
		required_missions = {  }
		position = 1
		trigger = {
			has_spy_network_in = {
				who = R15
				value = 30
			}
			4470 = {
				artillery_in_province = R21
			}
		}
		effect = {
			add_spy_network_in = {
				who = R15
				value = -30
			}
			define_advisor = {
				type = trader
				skill = 1
				discount = no
				culture = rasarhid
				religion = high_philosophy
			}
			custom_tooltip = SARISUNG_EVENT
			hidden_effect = {
				country_event = {
					id = flavour_sarisung.2
					days = 20
					random = 10
				}
			}
		}
	}

	bribe_figureheads_mission = {
		icon = mission_entrepot_of_india
		required_missions = {threaten_figureheads_mission}
		position = 2
		trigger = {
				if = {
					limit = {
						has_dlc = "Cradle of Civilization"
					}
					AND = {
						trader = 2
						employed_advisor = {
							culture = rasarhid
						}
					}
				}
				else {
					employed_advisor = {
						culture = rasarhid
					}
				}
		}
		effect = {
			R15 = {
				add_liberty_desire = -30
			}
		}
	}

	propose_integration_mission = { 
		icon = mission_asian_trader
		required_missions = {bribe_figureheads_mission}
		position = 3
		trigger = {
			4470 = {
				has_building = workshop
			}
		}
		effect = {
			inherit = R15
			4470 = {
				add_permanent_province_modifier = {
					name = porcelain_city
					duration = -1
				}
			}
		}
	}
}

porcelain_diplomacy_missions = {
	slot = 2
	generic = no
	ai = yes
	potential = {
		tag = R21
	}
	has_country_shield = yes
	
	friends_in_high_places_mission = { 
		icon = mission_invade_burma
		required_missions = {  }
		position = 4
		trigger = {
			R21 = {
				any_ally = {
					is_great_power = yes
				}
			}
		}
		effect = {
			custom_tooltip = SARISUNG_FRIEND
			hidden_effect = {
				R21 = {
					random_ally = {
						limit = {
							is_great_power = yes
						}	
						add_historical_friend = R21
						R21 = {
							add_historical_friend = PREV
						}
					}
				}
			}
		}
	}

	leverage_our_influence_mission = {
		icon = porcelain_from_meissen
		required_missions = {friends_in_high_places_mission}
		position = 5
		trigger = {
			R21 = {
				trading_part = {
					trade_goods = chinaware
					value = 0.25
				}
			}
		}
		effect = {
			custom_tooltip = SARISUNG_CONTROL
			hidden_effect = {
				
				4493 = {
					owner = { 
						if = {
							limit = {
								NOT = {
									num_of_cities = 4
								}		
							}
							grant_independence = yes
							R21 = {
								vassalize = PREV
							}
						}
						else = {
							remove_core = PREV
							4493 = {	
								add_core = R21
								cede_province = R21
							}
						}
					}
				}
				4409 = {
					owner = { 
						if = {
							limit = {
								NOT = {
									num_of_cities = 4
								}		
							}
							grant_independence = yes
							R21 = {
								vassalize = PREV
							}
						}
						else = {
							remove_core = PREV
							4409 = {	
								add_core = R21
								cede_province = R21
							}
						}
					}
				}
			}
		}
	}	

	rival_in_the_south_mission = { 
		icon = mission_subdue_rajputana
		required_missions = {
			leverage_our_influence_mission
			rulers_of_the_river_mission
		}
		position = 6
		trigger = {
			OR = {
				AND = {
					R21 = {
						is_rival = R38
					}
					R38 = {
						OR = {
							has_opinion_modifier = {
								who = R21
								modifier = insulted
							}
							has_opinion_modifier = {
								who = R21
								modifier = scornfully_insulted
							}
						}
					}
				}
				R38 = {
					exists = no
				}
			}
		}
		effect = {
			if = {
				limit = {
					R38 = {
						exists = yes
					}	
				}
				add_casus_belli = {
   					 target = R38
   					 type = cb_vassalize_mission
   					 months = 300
				}
			}
			kharunyana_estuary_area = {
				limit = {
					NOT = { is_core = ROOT }
					NOT = { is_permanent_claim = ROOT }
				}
				add_permanent_claim = R21
			}
			li_btei_area = {
				limit = {
					NOT = { is_core = ROOT }
					NOT = { is_permanent_claim = ROOT }
				}
				add_permanent_claim = R21
			}
		}
	}

	access_to_the_sea_mission = { 
		icon = mission_galleys_in_port
		required_missions = {rival_in_the_south_mission}
		position = 7
		provinces_to_highlight = {
			area = kharunyana_estuary_area
			NOT = {
				country_or_non_sovereign_subject_holds = R21
			}
		}
		trigger = {
			kharunyana_estuary_area = {
				OR = {
					owned_by = R21
					owner = {
						is_subject_of = R21
					}
				}
				type = all
			}
			4420 = {
				trade_share = {
					country = R21
					share = 60
				}
			}
		}
		effect = {
			add_mercantilism = 10
		}
	}
}

sarisung_missions = {
	slot = 3
	generic = no
	ai = yes
	potential = {
		tag = R21
	}
	has_country_shield = yes
 
	civilized_thugs_mission = { 
		icon = mission_rule_the_garjats
		required_missions = {}
		position = 1
		trigger = {
			has_global_modifier_value = {
				which = diplomatic_reputation
				value = 0.02
			}
		}
		effect = {
			set_country_flag = sarisung_city_guard_mission_flag
			custom_tooltip = sarisung_city_guard_mercs_enabled
		}
	}

	harimari_instructors_mission = { 
		icon = mission_conquer_kannauj
		required_missions = {civilized_thugs_mission}
		position = 2
		trigger = {
			NOT = {
				R21 = {
					has_opinion = {
						who = R62
						value = 0
					}
				}
			}
			advisor = army_reformer
		}
		effect = {
			medium_increase_of_hobgoblin_tolerance_effect = yes
			4500 = {
				add_hobgoblin_minority_size_effect = yes
			}
			if = {
				limit = {
					has_dlc = "Cradle of Civilization"
				}
				add_country_modifier = { 
  			 		name = sarisung_drill_instructors
   					duration = 3650
				}
			}
			else = {
				add_army_tradition = 25
			}
		}
	}

	birth_of_bureaucracy_mission = { 
		icon = mission_scholar_officials
		required_missions = {harimari_instructors_mission}
		position = 3
		trigger = {
			custom_trigger_tooltip = {
				tooltip = SARISUNG_ADM
				national_focus = ADM
			}
		}
		effect = {
			4500 = {
				add_building_construction = {
 					building = town_hall
					speed = 0.5
					cost = 0.5
				}
			}
			change_government_reform_progress = 25
		}
	}

	spring_of_a_new_era_mission = { 
		icon = public_works
		required_missions = {birth_of_bureaucracy_mission}
		position = 4
		trigger = {
			sarisung_area = {
				type = all
				owned_by = R21
			}
			if = {
				limit = {
					has_dlc = "Mandate of Heaven"
				}
				OR = {
					in_golden_age = yes
					custom_trigger_tooltip = {
						tooltip = SARISUNG_PROSPERITY
						sarisung_area = {
							type = all
							is_prosperous = yes
						}
					}
					
				}
			}
			else = {
				has_global_modifier_value = {
					which = prestige
					value = 50
				}
			}
		}
		effect = {
			4470 = {
				change_culture = sarisungi
			}
			4489 = {
				change_culture = sarisungi
			}
			4620 = {
				change_culture = sarisungi
			}
			4364 = {
				change_culture = sarisungi
			}
		}
	}

	rulers_of_the_river_mission = { 
		icon = mission_advance_to_the_dnieper
		required_missions = {
				spring_of_a_new_era_mission
				southern_connection_mission
		}
		position = 5
		trigger = {
			army_size = 30
		}
		effect = {
			#areanc17_area = {
			#	limit = {
			#		NOT = { is_core = ROOT }
			#		NOT = { is_permanent_claim = ROOT }
			#	}
			#	add_permanent_claim = R21
			#}
			khirnadhiman_area = {
				limit = {
					NOT = { is_core = ROOT }
					NOT = { is_permanent_claim = ROOT }
				}
				add_permanent_claim = R21
			}
			phangban_area = {
				limit = {
					NOT = { is_core = ROOT }
					NOT = { is_permanent_claim = ROOT }
				}
				add_permanent_claim = R21
			}
			khiraspid_area = {
				limit = {
					NOT = { is_core = ROOT }
					NOT = { is_permanent_claim = ROOT }
				}
				add_permanent_claim = R21
			}
		}
	}

	nation_of_great_cities_mission = { 
		icon = secure_the_republic
		required_missions = {rulers_of_the_river_mission}
		position = 6
		trigger = {
			porcelain_cities = {
				type = all
				owned_by = R21
				development = 25
			}
		}
		effect = {
			porcelain_cities = {
				add_base_tax = 1
				add_base_production = 1
				add_base_manpower = 1
			}
		}
	}

	undisputed_rule_mission = { 
		icon = mission_empire
		required_missions = {
			nation_of_great_cities_mission
			rival_in_the_south_mission
		}
		position = 7
		trigger = {
			months_of_ruling = 120
			absolutism = 50
		}
		effect = {
			override_country_name = COUNTRY_NAME_KHARUNYANA
			change_government = monarchy
			add_government_reform = kharunyana_monarchy
		}
	}
}

sarkhani_missions = {
	slot = 4
	generic = no
	ai = yes
	potential = {
		tag = R21
	}
	has_country_shield = yes
 
	leverage_river_control_mission = { 
		icon = mission_disrupt_portuguese_trade
		required_missions = {}
		position = 1
		trigger = {
			4500 = {
				has_building = marketplace
			}
			if = {
				limit = {
					has_dlc = "Cradle of Civilization"
				}
				trading_policy_in_node = {
					node = 4500
					policy = hostile_trading
				}
			}
		}
		effect = {
			add_mercantilism = 5
			custom_tooltip = SARISUNG_EVENT
			hidden_effect = {
				country_event = {
					id = flavour_sarisung.3
					days = 20
					random = 10
				}
			}
		}
	}

	black_market_hub_mission = { 
		icon = mission_riches_of_golconda
		required_missions = {leverage_river_control_mission}
		position = 2
		trigger = {
			4500 = {
				is_strongest_trade_power = R21
				trade_share = {
					country = R21
					share = 25
				}
			}
			treasury = 500
		}
		effect = {
			add_treasury = -500
			4500 = {
				center_of_trade = 1
			}
		}
	}

	promise_protection_mission = {
		icon = mission_deccanis
		required_missions = {black_market_hub_mission}
		position = 3
		trigger = {
			custom_trigger_tooltip = {
				tooltip = SARISUNG_NEIGHBOUR
				R60 = {
					all_neighbor_country = {
						NOT = {
							OR = {
								ai_attitude = {
									who = R21
									attitude = attitude_hostile
								}
								ai_attitude = {
									who = R21
									attitude = attitude_domineering
								}
							}
						}
					}
				}
			}
			
		}
		effect = {
			inherit = R60
			add_accepted_culture = chengrong
		}
	}
}

southern_connection_missions = {
	slot = 4
	generic = no
	ai = yes
	potential = {
		tag = R21
	}
	has_country_shield = yes
 
	southern_connection_mission = { 
		icon = mission_non-western_soldiers
		required_missions = {}
		position = 4
		trigger = {
			accepted_culture = chengrong
			R21 = {
				any_rival_country = {
					OR = {
					primary_culture = chengrong
					accepted_culture = chengrong
					}
				}
			}
		}
		effect = {
			semphrerong_area = {
				limit = {
					NOT = { is_core = ROOT }
					NOT = { is_permanent_claim = ROOT }
				}
				add_permanent_claim = R21
			}
			R21 = {
				random_rival_country = {
					limit = {
						OR = {
							primary_culture = chengrong
							accepted_culture = chengrong
						}
					}
					R21 = {
						add_casus_belli = {
							target = PREV
							type = cb_vassalize_mission
							months = 300
						}
					}
				}
			}
		}
	}
}

river_trading_missions = {
	slot = 4
	generic = no
	ai = yes
	potential = {
		tag = R21
	}
	has_country_shield = yes
 
	forceful_negotiations_mission = { 
		icon = mission_conquer_malwa_bah
		required_missions = {}
		position = 5
		trigger = {
			num_of_trade_embargos = 3
		}
		effect = {
			add_mercantilism = 5
		}
	}

	trading_in_the_north_mission = { 
		icon = mission_dominate_trade_in_bengal
		required_missions = {forceful_negotiations_mission}
		position = 6
		trigger = {
			4444 = {
				OR = {
					owned_by = R21
					owner = {
						defensive_war_with = R21
						NOT = {
							war_score = -25
						}
					}
				}
			}
		}
		effect = {
			4460 = {
				add_trade_modifier = {
					who = ROOT
					duration = -1
					power = 15
					key = SARISUNG_CONCESSIONS
				}
			}
		}
	}

	swords_for_rights_mission = { 
		icon = mission_the_chola_campaigns
		required_missions = {
				trading_in_the_north_mission
				garden_of_secrets_three_mission
		}
		position = 7
		trigger = {
			R62 = {
				has_spawned_supported_rebels = R21
			}
			OR = {
				exists = R78
				exists = R79
				exists = R80
			}
		}
		effect = {
			4630 = {
				add_trade_modifier = {
					who = ROOT
					duration = -1
					power = 25
					key = SARISUNG_CONCESSIONS
				}
			}
		}
	}
}

khappur_missions = {
	slot = 5
	generic = no
	ai = yes
	potential = {
		tag = R21
	}
	has_country_shield = yes
 
	integrate_teachings_mission = { 
		icon = mission_buddhist_monk_praying
		required_missions = {}
		position = 1
		trigger = {
			4620 = {
				religion = high_philosophy
			}
		}
		effect = {
			if = {
				limit = {
					NOT = {
						R21 = {
							stability = 3
						}
					}
				}
				add_stability = 1
				
			}
			else = {
				R21 = {
					add_adm_power = 100
				}
			}
		}
	}

	tolerate_experimentation_mission = { 
		icon = mission_eliminate_pretenders
		required_missions = {integrate_teachings_mission}
		position = 2
		trigger = {
			R59 = {
				has_subsidize_armies = yes 
			}
		}
		effect = {
			custom_tooltip = emp_ven_plague_doctor_training_tt
			set_country_flag = has_competent_doctors
			
			custom_tooltip = SARISUNG_EVENT
			hidden_effect = {
				country_event = {
					id = flavour_sarisung.4
					days = 30
					random = 15
				}
			}
		}
	}

	a_deal_in_the_shadows_mission = { 
		icon = mission_indian_stateman
		required_missions = {tolerate_experimentation_mission}
		position = 3
		trigger = {
			legitimacy_equivalent = 95
		}
		effect = {
			inherit = R59
			4620 = {
				add_building_construction = {
					building = garden_of_secrets_0
					speed = 1
					cost = 0
				}
			}
		}
	}

	garden_of_secrets_one_mission = { 
		icon = mission_end_manipuri_raids
		required_missions = {a_deal_in_the_shadows_mission}
		position = 4
		trigger = {
			4620 = {
				has_building = garden_of_secrets_0
			}
			R21 = {
				any_ally = {
					NOT = {
						OR = {
							technology_group = tech_raheni
							technology_group = tech_halessi
							technology_group = tech_harimari
						}
					}
				}
			}
		}
		effect = {
			4620 = {
				add_building_construction = {
					building = garden_of_secrets_1
					speed = 1
					cost = 0
				}
			}
		}
	}

	garden_of_secrets_two_mission = { 
		icon = mission_japanese_fort
		required_missions = {garden_of_secrets_one_mission}
		position = 5
		trigger = {
			4620 = {
				has_building = garden_of_secrets_1
			}
			R21 = {
				num_of_trusted_allies = 1
			}
		}
		effect = {
			4620 = {
				add_building_construction = {
					building = garden_of_secrets_2
					speed = 1
					cost = 0
				}
			}
		}
	}

	garden_of_secrets_three_mission = { 
		icon = mission_asian_city
		required_missions = {garden_of_secrets_two_mission}
		position = 6
		trigger = {
			4620 = {
				has_building = garden_of_secrets_2
			}
			R21 = {
				has_commanding_three_star = yes
			}
		}
		effect = {
			4620 = {
				add_building_construction = {
					building = garden_of_secrets_3
					speed = 1
					cost = 0
				}
			}
		}
	}
}